Date,Type,Nom
01/01/2015,fixe,jour de l’an
06/04/2015,variable,lundi de pâques
01/05/2015,fixe,Fête du travail
08/05/2015,fixe,Libération
14/05/2015,variable,Ascension
25/05/2015,variable,lundi de pentecôte
14/07/2015,fixe,Fête nationale
15/08/2015,fixe,Marie
01/11/2015,fixe,Toussaint
11/11/2015,fixe,Armistice
25/12/2015,fixe,Noël
01/01/2016,fixe,jour de l’an
28/03/2016,variable,lundi de pâques
01/05/2016,fixe,Fête du travail
05/05/2016,variable,Ascension
08/05/2016,fixe,Libération
16/05/2016,variable,lundi de pentecôte
14/07/2016,fixe,Fête nationale
15/08/2016,fixe,Marie
01/11/2016,fixe,Toussaint
11/11/2016,fixe,Armistice
25/12/2016,fixe,Noël
01/01/2017,fixe,jour de l’an
17/04/2017,variable,lundi de pâques
01/05/2017,fixe,Fête du travail
08/05/2017,fixe,Libération
25/05/2017,variable,Ascension
05/06/2017,variable,lundi de pentecôte
14/07/2017,fixe,Fête nationale
15/08/2017,fixe,Marie
01/11/2017,fixe,Toussaint
11/11/2017,fixe,Armistice
25/12/2017,fixe,Noël
01/01/2018,fixe,jour de l’an
02/04/2018,variable,lundi de pâques
01/05/2018,fixe,Fête du travail
08/05/2018,fixe,Libération
10/05/2018,variable,Ascension
21/05/2018,variable,lundi de pentecôte
14/07/2018,fixe,Fête nationale
15/08/2018,fixe,Marie
01/11/2018,fixe,Toussaint
11/11/2018,fixe,Armistice
25/12/2018,fixe,Noël
01/01/2019,fixe,jour de l’an
22/04/2019,variable,lundi de pâques
01/05/2019,fixe,Fête du travail
08/05/2019,fixe,Libération
30/05/2019,variable,Ascension
10/06/2019,variable,lundi de pentecôte
14/07/2019,fixe,Fête nationale
15/08/2019,fixe,Marie
01/11/2019,fixe,Toussaint
11/11/2019,fixe,Armistice
25/12/2019,fixe,Noël
01/01/2020,fixe,jour de l’an
13/04/2020,variable,lundi de pâques
01/05/2020,fixe,Fête du travail
08/05/2020,fixe,Libération
21/05/2020,variable,Ascension
01/06/2020,variable,lundi de pentecôte
14/07/2020,fixe,Fête nationale
15/08/2020,fixe,Marie
01/11/2020,fixe,Toussaint
11/11/2020,fixe,Armistice
25/12/2020,fixe,Noël
